^D:\TEMP\JUNYU\CPP_WEBSOCKET\CPP_WEBSOCKET_LASTVERSION\CPP_WEBSOCKET\RELEASE\MAIN.OBJ|D:\TEMP\JUNYU\CPP_WEBSOCKET\CPP_WEBSOCKET_LASTVERSION\CPP_WEBSOCKET\RELEASE\PCH.OBJ|D:\TEMP\JUNYU\CPP_WEBSOCKET\CPP_WEBSOCKET_LASTVERSION\CPP_WEBSOCKET\RELEASE\STACKTRACER.OBJ|D:\TEMP\JUNYU\CPP_WEBSOCKET\CPP_WEBSOCKET_LASTVERSION\CPP_WEBSOCKET\RELEASE\WEBSOCKET.OBJ|D:\TEMP\JUNYU\CPP_WEBSOCKET\CPP_WEBSOCKET_LASTVERSION\CPP_WEBSOCKET\RELEASE\WSSERVER.OBJ
D:\TEMP\JUNYU\CPP_WEBSOCKET\CPP_WEBSOCKET_LASTVERSION\RELEASE\CPP_WEBSOCKET.EXE
D:\TEMP\JUNYU\CPP_WEBSOCKET\CPP_WEBSOCKET_LASTVERSION\RELEASE\CPP_WEBSOCKET.PDB
